…
summary %>% show_query()
```
```
<SQL>
SELECT `Origin`, AVG(`DepTime`) AS `AvgDepTime`
FROM `airlines_1987`
GROUP BY `Origin`
ORDER BY `AvgDepTime` DESC
```
].pull-right[
```r
summary %>% collect()
```
```
# A tibble: 237 x 2
   Origin AvgDepTime
   <chr>       <dbl>
 1 LIH         2047.
 2 OGG         1790.
 3 BET         1637.
 4 DRO         1633.
 5 SPN         1620.
 6 HNL         1578.
 7 JAC         1563.
 8 JFK         1547.
 9 STX         1527.
10 ATL         1509.
# … with 227 more rows
```
…
